 [
      {
        "title": "All Day Event",
        "start": "2021-01-01"
      },
      {
        "title": "Long Event",
        "start": "2021-01-07",
        "end": "2021-01-10",
        "description": "This is the sample event provided as an example only",
        "color": "red" 
      },
      {
        "groupId": "999",
        "title": "Repeating Event",
        "description": "This is the sample event provided as an example only",
        "start": "2021-01-09T16:00:00"
      },
      {
        "groupId": "999",
        "title": "Foss RIT event",
        "start": "2021-02-09T18:00:00",
        "location":"RIT Magic Center",
        "link":"https://fossrit.github.io"
      },
      {
        "groupId": "999",
        "title": "Repeating Event",
        "start": "2021-01-16T16:00:00"
      },
      {
        "title": "Conference",
        "start": "2021-01-11",
        "end": "2021-01-13",
        "description": "This is the sample event provided as an example only",
        "color": "purple" 
      },
      {
        "title": "Meeting",
        "start": "2021-01-12T10:30:00",
        "end": "2021-01-12T12:30:"
      },
      {
        "title": "Lunch",
        "start": "2021-01-12T12:00:"
      },
      {
        "title": "Meeting",
        "start": "2021-01-12T14:30:"
      },
      {
        "title": "Open@RIT Event",
        "link": "https://suhascv.gitlab.io/open-rit/",
        "start": "2021-01-29T09:30",
        "end":"2021-01-29T10:30",
        "marker": "red",
        "location":"RIT Magic",
        "orgainser":"Stephen Jacobs",
        "description":"update on open@RIT website content"
        
      }
    ]